<?xml version="1.0" encoding="UTF-8"?>
<svg width="1px" height="1px" viewBox="0 0 1 1" version="1.1" xmlns="http://www.w3.org/2000/svg" xmlns:xlink="http://www.w3.org/1999/xlink">
    <!-- Generator: Sketch 46.2 (44496) - http://www.bohemiancoding.com/sketch -->
    <title>stripe</title>
    <desc>Created with Sketch.</desc>
    <defs></defs>
    <g id="Page-1" stroke="none" stroke-width="1" fill="none" fill-rule="evenodd" fill-opacity="0.100000001">
        <g id="stripe" fill-rule="nonzero" fill="#000000">
            <rect id="Rectangle-path" x="0" y="0" width="1" height="1"></rect>
        </g>
    </g>
</svg>